[gd_scene load_steps=3 format=2]

[ext_resource path="res://default.tres" type="TileSet" id=1]
[ext_resource path="res://Scripts/World.gd" type="Script" id=2]

[node name="World" type="Node2D"]
script = ExtResource( 2 )

[node name="TileMap" type="TileMap" parent="."]
tile_set = ExtResource( 1 )
cell_size = Vector2( 48, 48 )
occluder_light_mask = 0
format = 1
